<?xml version="1.0" encoding="UTF-8" standalone="no"?>
<!DOCTYPE svg PUBLIC "-//W3C//DTD SVG 1.1//EN" "http://www.w3.org/Graphics/SVG/1.1/DTD/svg11.dtd">
<svg width="100%" height="100%" viewBox="0 0 47 37" version="1.1" xmlns="http://www.w3.org/2000/svg" xmlns:xlink="http://www.w3.org/1999/xlink" xml:space="preserve" xmlns:serif="http://www.serif.com/" style="fill-rule:evenodd;clip-rule:evenodd;stroke-linejoin:round;stroke-miterlimit:2;">
    <g transform="matrix(0.628571,0,0,0.893134,-55.0889,-84.3627)">
        <g transform="matrix(1,0,0,0.782223,0,25.2642)">
            <rect x="90.028" y="90.604" width="70" height="48.667" style="fill:white;"/>
        </g>
        <g transform="matrix(0.991736,0,0,0.559826,2.3556,45.7874)">
            <path d="M149.361,101.937C149.361,100.833 148.642,99.937 147.757,99.937L99.632,99.937C98.747,99.937 98.028,100.833 98.028,101.937L98.028,105.937C98.028,107.041 98.747,107.937 99.632,107.937L147.757,107.937C148.642,107.937 149.361,107.041 149.361,105.937L149.361,101.937Z" style="fill:rgb(108,122,137);"/>
        </g>
        <g transform="matrix(0.991736,0,0,0.559826,2.3556,56.9839)">
            <path d="M149.361,101.937C149.361,100.833 148.642,99.937 147.757,99.937L99.632,99.937C98.747,99.937 98.028,100.833 98.028,101.937L98.028,105.937C98.028,107.041 98.747,107.937 99.632,107.937L147.757,107.937C148.642,107.937 149.361,107.041 149.361,105.937L149.361,101.937Z" style="fill:rgb(108,122,137);"/>
        </g>
        <g transform="matrix(0.991736,0,0,0.559826,2.3556,68.1436)">
            <path d="M149.361,101.937C149.361,100.833 148.642,99.937 147.757,99.937L99.632,99.937C98.747,99.937 98.028,100.833 98.028,101.937L98.028,105.937C98.028,107.041 98.747,107.937 99.632,107.937L147.757,107.937C148.642,107.937 149.361,107.041 149.361,105.937L149.361,101.937Z" style="fill:rgb(108,122,137);"/>
        </g>
    </g>
</svg>
